<?xml version="1.0" encoding="utf-8"?>
<!-- Generator: Adobe Illustrator 18.0.0, SVG Export Plug-In . SVG Version: 6.00 Build 0)  -->
<!DOCTYPE svg PUBLIC "-//W3C//DTD SVG 1.1//EN" "http://www.w3.org/Graphics/SVG/1.1/DTD/svg11.dtd">
<svg version="1.1" xmlns="http://www.w3.org/2000/svg" xmlns:xlink="http://www.w3.org/1999/xlink" x="0px" y="0px"
	 viewBox="0 0 120 140" enable-background="new 0 0 120 140" xml:space="preserve">
<g id="Calque_1">
	<g>
		<g>
			<g>
				<circle fill="#F2F2F2" cx="57.2" cy="62.2" r="52.2"/>
			</g>
			<g>
				<path fill="#00ACC1" d="M27.7,63.9L27.7,63.9l0-0.1l0,0c0-0.2-0.1-0.2-0.2-0.3l-1.9-1.9c-0.2-0.2-0.3-0.2-0.4-0.2
					c-0.1,0-0.2,0.1-0.4,0.2l-1.9,1.9c-0.1,0.1-0.1,0.2-0.2,0.3l0,0l0,0.1v25.2c0,0.3,0.1,0.3,0.2,0.4l1.9,1.9
					c0.2,0.2,0.3,0.2,0.4,0.2s0.2-0.1,0.4-0.2l1.9-1.9c0.1-0.1,0.2-0.2,0.2-0.4V70.7V63.9z"/>
				<path fill="#00ACC1" d="M30.4,79.9l1.9,1.9c0.2,0.2,0.2,0.3,0.2,0.4c0,0.1-0.1,0.2-0.2,0.4l-1.9,1.9l-0.2,0.2
					c6.6,0,11.9-5.3,11.9-11.9c0-2.1-0.6-4.1-1.6-5.9l0,0l0,0c-1.6-2.7-4.2-4.8-7.3-5.6v0l0,0l0,0c-0.2-0.1-0.3,0-0.5,0l-2.4,1.4
					c-0.2,0.1-0.3,0.2-0.3,0.3c0,0.1,0,0.2,0.1,0.4l1.4,2.4c0.1,0.1,0.1,0.2,0.4,0.3l0,0c1.8,0.5,3.3,1.7,4.2,3.3l0,0h0h0
					c0.6,1,0.9,2.2,0.9,3.4c0,3.8-3.1,6.9-6.9,6.9L30.4,79.9z"/>
			</g>
			<g>
				<g>
					<path fill="#00ACC1" d="M57.6,48.8L57.6,48.8L57.6,48.8z"/>
				</g>
				<path fill="#00ACC1" d="M69.5,56.8l-1.9-1.9c-0.2-0.2-0.3-0.2-0.4-0.2s-0.2,0.1-0.4,0.2l-1.9,1.9l-0.2,0.2v-0.2
					c0-3.8-3.1-6.9-6.9-6.9s-6.9,3.1-6.9,6.9v2.1c0,0.3-0.1,0.3-0.2,0.4l-1.9,1.9c-0.2,0.2-0.3,0.2-0.4,0.2s-0.2-0.1-0.4-0.2
					L46,59.2c-0.1-0.1-0.2-0.2-0.2-0.4v-2.1c0-6.6,5.3-11.9,11.9-11.9c6.6,0,11.9,5.3,11.9,11.9v0.2L69.5,56.8z"/>
				<path fill="#00ACC1" d="M46,63.4l1.9,1.9c0.2,0.2,0.3,0.2,0.4,0.2s0.2-0.1,0.4-0.2l1.9-1.9l0.2-0.2v0.2c0,3.8,3.1,6.9,6.9,6.9
					c3.8,0,6.9-3.1,6.9-6.9v-2.1c0-0.3,0.1-0.3,0.2-0.4l1.9-2c0.2-0.2,0.3-0.2,0.4-0.2c0.1,0,0.2,0.1,0.4,0.2l1.9,2
					c0.1,0.1,0.2,0.2,0.2,0.4v2.1c0,6.6-5.3,11.9-11.9,11.9c-6.6,0-11.9-5.3-11.9-11.9v-0.2L46,63.4z"/>
			</g>
			<g>
				<path fill="#00ACC1" d="M80.8,35.3C80.8,35.3,80.8,35.3,80.8,35.3l0-0.1l0,0c0-0.2-0.1-0.2-0.2-0.3l-1.9-1.9
					c-0.2-0.2-0.3-0.2-0.4-0.2c-0.1,0-0.2,0.1-0.4,0.2l-2,1.9c-0.1,0.1-0.1,0.2-0.2,0.3l0,0l0,0.1v25.2c0,0.3,0.1,0.3,0.2,0.4l2,1.9
					c0.2,0.2,0.3,0.2,0.4,0.2s0.2-0.1,0.4-0.2l1.9-1.9c0.1-0.1,0.2-0.2,0.2-0.4V42.1V35.3z"/>
				<path fill="#00ACC1" d="M83.5,37.5l1.9-1.9c0.2-0.2,0.2-0.3,0.2-0.4c0-0.1-0.1-0.2-0.2-0.4l-1.9-1.9l-0.2-0.2
					c6.6,0,11.9,5.3,11.9,11.9c0,2.1-0.6,4.1-1.6,5.9h0l0,0c-1.6,2.7-4.2,4.8-7.3,5.6v0l0,0l0,0c-0.2,0.1-0.3,0-0.5,0l-2.4-1.4
					c-0.2-0.1-0.3-0.2-0.3-0.3c0-0.1,0-0.2,0.1-0.4l1.4-2.4c0.1-0.1,0.1-0.2,0.4-0.3l0,0c1.8-0.5,3.3-1.7,4.2-3.3h0l0,0l0,0
					c0.6-1,0.9-2.2,0.9-3.4c0-3.8-3.1-6.9-6.9-6.9L83.5,37.5z"/>
			</g>
		</g>
		<g display="none">
			<circle display="inline" fill="#77B756" cx="86.2" cy="106.2" r="33.8"/>
			<g display="inline" enable-background="new    ">
				<path fill="#FFFFFF" d="M68,107.9c0,0.9,0.5,1.5,1.4,1.5c0.9,0,1.4-0.7,1.4-1.6c0-2.6-4-1-4-4.6c0-1.6,0.9-2.8,2.6-2.8
					c1.7,0,2.6,1.2,2.6,2.6v0.4h-1.2V103c0-0.9-0.5-1.5-1.4-1.5c-0.9,0-1.4,0.7-1.4,1.6c0,0.1,0,0.2,0.1,0.3
					c0.1,1.1,0.9,1.3,1.6,1.5c1.1,0.4,2.3,0.9,2.3,2.7c0,1.6-0.9,2.8-2.6,2.8c-1.7,0-2.6-1.2-2.6-2.6v-0.4H68L68,107.9L68,107.9z"/>
				<path fill="#FFFFFF" d="M78.6,107.9c0,1.4-0.9,2.6-2.6,2.6c-1.7,0-2.6-1.2-2.6-2.6V103c0-1.4,0.9-2.6,2.6-2.6
					c1.7,0,2.6,1.2,2.6,2.6v0.4h-1.2V103c0-0.8-0.4-1.5-1.4-1.5c-1,0-1.4,0.7-1.4,1.5v4.9c0,0.8,0.4,1.5,1.4,1.5
					c0.9,0,1.4-0.7,1.4-1.5v-0.4h1.2V107.9z"/>
				<path fill="#FFFFFF" d="M84.4,110.3V106h-2.9v4.3h-1.2v-9.8h1.2v4.3h2.9v-4.3h1.2v9.8H84.4z"/>
				<path fill="#FFFFFF" d="M92.7,107.9c0,1.4-0.9,2.6-2.7,2.6c-1.7,0-2.7-1.2-2.7-2.6V103c0-1.4,0.9-2.6,2.7-2.6
					c1.7,0,2.7,1.2,2.7,2.6V107.9z M88.6,107.9c0,0.8,0.5,1.5,1.5,1.5c0.9,0,1.4-0.7,1.4-1.5V103c0-0.8-0.5-1.5-1.4-1.5
					c-1,0-1.5,0.7-1.5,1.5V107.9z"/>
				<path fill="#FFFFFF" d="M99.7,107.9c0,1.4-0.9,2.6-2.7,2.6c-1.7,0-2.7-1.2-2.7-2.6V103c0-1.4,0.9-2.6,2.7-2.6
					c1.7,0,2.7,1.2,2.7,2.6V107.9z M95.6,107.9c0,0.8,0.5,1.5,1.5,1.5c0.9,0,1.4-0.7,1.4-1.5V103c0-0.8-0.5-1.5-1.4-1.5
					c-1,0-1.5,0.7-1.5,1.5V107.9z"/>
				<path fill="#FFFFFF" d="M101.5,110.3v-9.8h1.2v8.7h3.4v1.1H101.5z"/>
			</g>
		</g>
	</g>
</g>
<g id="Calque_2">
	<g>
		<g>
			<g>
				<g>
					<g>
						<path fill="#F2F2F2" d="M89.5,73.6L84,70c-0.9-0.6-2.1-0.3-2.7,0.6L57.9,108c-0.6,0.9-0.3,2.2,0.6,2.8L88,130.2
							c0.9,0.6,2.1,0.3,2.7-0.6l23.3-37.4c0.6-0.9,0.3-2.2-0.6-2.8l-5.5-3.7"/>
					</g>
					<path fill="#00ACC1" d="M102.7,107.7C102.6,107.8,102.6,107.8,102.7,107.7l-13.2,21.1c-0.1,0.1-0.2,0.2-0.3,0.2
						c-0.1,0-0.2,0-0.3-0.1l-29.5-19.5c-0.2-0.2-0.3-0.5-0.2-0.8l13.1-20.9l-2.1,0.7c-0.1,0-0.2,0-0.2-0.1l-0.3-2.1l-13.1,20.9
						c-1,1.6-0.5,3.8,1.1,4.8l29.5,19.5c0.6,0.4,1.2,0.6,1.9,0.6c0.2,0,0.5,0,0.7-0.1c0.9-0.2,1.7-0.7,2.2-1.5l13.1-20.9
						c0,0,0-0.1,0-0.1L105,107c0-0.1-0.1-0.2-0.2-0.1L102.7,107.7z"/>
					<path fill="#00ACC1" d="M106.9,106.5l8.4-13.5c1-1.6,0.5-3.8-1.1-4.8l-5.5-3.7l-1.7,2.5l5.5,3.7c0.2,0.2,0.3,0.5,0.2,0.8
						l-8.3,13.3l2.1-0.7c0.1,0,0.2,0,0.2,0.1L106.9,106.5z"/>
					<path fill="#00ACC1" d="M74.1,84.7c0,0,0.1-0.1,0.1-0.1l8.2-13.2c0.1-0.1,0.2-0.2,0.3-0.2c0.1,0,0.2,0,0.3,0.1l5.5,3.7l1.7-2.5
						l-5.5-3.7c-1-0.6-2.2-0.8-3.3-0.3c-0.7,0.3-1.2,0.8-1.6,1.4l-8.1,12.9c0,0,0,0.1,0,0.1v2.4c0,0.2,0.2,0.3,0.3,0.2L74.1,84.7z"
						/>
					<path fill="#00ACC1" d="M69.7,86.3"/>
				</g>
			</g>
		</g>
		<g>
			<path fill="#F2F2F2" d="M102.5,79.9c1-1.5,0.5-3.6-1.1-4.6c-1.5-1-3.5-0.6-4.5,0.9l-6.4-4.2l-4.1,6.6l18.4,12.2l4.1-6.6
				L102.5,79.9z"/>
			<path fill="#00ACC1" d="M105.3,92.8L84.4,79l5.7-9.1l6.6,4.4c1.5-1.2,3.9-1.4,5.6-0.2c1.8,1.2,2.6,3.3,2.1,5.3l6.6,4.4
				L105.3,92.8z M88.5,78.1l15.9,10.5l2.5-4l-6.4-4.2l0.8-1.2c0.5-0.8,0.3-2-0.6-2.6c-0.8-0.5-1.9-0.3-2.4,0.5l-0.8,1.3L91,74
				L88.5,78.1z"/>
		</g>
		<g>
			<g>
				<g>
					<line fill="#F2F2F2" x1="87.3" y1="92.4" x2="98.6" y2="99.9"/>
					
						<rect x="86.2" y="94.6" transform="matrix(0.8344 0.5512 -0.5512 0.8344 68.3826 -35.3046)" fill="#00ACC1" width="13.5" height="3"/>
				</g>
				<g>
					<line fill="#F2F2F2" x1="81" y1="88.2" x2="81.9" y2="88.9"/>
					
						<rect x="80.9" y="87.1" transform="matrix(0.8344 0.5512 -0.5512 0.8344 62.3035 -30.2311)" fill="#00ACC1" width="1.2" height="3"/>
				</g>
			</g>
			<g>
				<g>
					<line fill="#F2F2F2" x1="82.6" y1="100" x2="93.8" y2="107.4"/>
					
						<rect x="81.5" y="102.2" transform="matrix(0.8344 0.5511 -0.5511 0.8344 71.7645 -31.4403)" fill="#00ACC1" width="13.5" height="3"/>
				</g>
				<g>
					<line fill="#F2F2F2" x1="76.2" y1="95.8" x2="77.2" y2="96.5"/>
					
						<rect x="76.1" y="94.6" transform="matrix(0.8344 0.5512 -0.5512 0.8344 65.6989 -26.3685)" fill="#00ACC1" width="1.2" height="3"/>
				</g>
			</g>
			<g>
				<g>
					<line fill="#F2F2F2" x1="77.9" y1="107.6" x2="89.1" y2="115"/>
					
						<rect x="76.7" y="109.8" transform="matrix(0.8344 0.5511 -0.5511 0.8344 75.1648 -27.5788)" fill="#00ACC1" width="13.5" height="3"/>
				</g>
				<g>
					<line fill="#F2F2F2" x1="71.5" y1="103.4" x2="72.5" y2="104"/>
					
						<rect x="71.4" y="102.2" transform="matrix(0.8346 0.5508 -0.5508 0.8346 69.036 -22.5042)" fill="#00ACC1" width="1.2" height="3"/>
				</g>
			</g>
		</g>
	</g>
</g>
</svg>
